{
    "packages": {
        "bmosher/testpkg": {
            "0.9": {
                "name": "bmosher/testpkg",
                "version": "0.9",
                "version_normalized": "0.9.0.0",
                "source": {
                    "type": "git",
                    "url": "https://bitbucket.org/bmosher/testpkg.git",
                    "reference": "bca0e45b8a903950d13f6af2bfad1d3587808b11"
                },
                "dist": {
                    "type": "zip",
                    "url": "https://bitbucket.org/bmosher/testpkg/get/bca0e45b8a903950d13f6af2bfad1d3587808b11.zip",
                    "reference": "bca0e45b8a903950d13f6af2bfad1d3587808b11",
                    "shasum": ""
                },
                "time": "2015-11-06T00:55:22+00:00",
                "type": "library",
                "autoload": {
                    "psr-4": {
                        "bmosher\\testpkg\\": "src"
                    }
                },
                "license": [
                    "Beer"
                ],
                "authors": [
                    {
                        "name": "Brendon Mosher",
                        "email": "brendon@iqon.net"
                    }
                ],
                "description": "Test Package",
                "homepage": "https://bitbucket.org/bmosher/testpkg",
                "support": {
                    "source": "https://bitbucket.org/bmosher/testpkg/src/bca0e45b8a903950d13f6af2bfad1d3587808b11/?at=0.9",
                    "issues": "https://bitbucket.org/bmosher/testpkg/issues"
                }
            },
            "0.9.1": {
                "name": "bmosher/testpkg",
                "version": "0.9.1",
                "version_normalized": "0.9.1.0",
                "source": {
                    "type": "git",
                    "url": "https://bitbucket.org/bmosher/testpkg.git",
                    "reference": "052a4df792eebea7723d58d76ce7156efa113e67"
                },
                "dist": {
                    "type": "zip",
                    "url": "https://bitbucket.org/bmosher/testpkg/get/052a4df792eebea7723d58d76ce7156efa113e67.zip",
                    "reference": "052a4df792eebea7723d58d76ce7156efa113e67",
                    "shasum": ""
                },
                "time": "2019-01-18T22:45:00+00:00",
                "type": "library",
                "autoload": {
                    "psr-4": {
                        "bmosher\\testpkg\\": "src"
                    }
                },
                "license": [
                    "Beer"
                ],
                "authors": [
                    {
                        "name": "Brendon Mosher",
                        "email": "brendon@iqon.net"
                    }
                ],
                "description": "Test Package",
                "homepage": "https://bitbucket.org/bmosher/testpkg",
                "support": {
                    "source": "https://bitbucket.org/bmosher/testpkg/src/052a4df792eebea7723d58d76ce7156efa113e67/?at=0.9.1",
                    "issues": "https://bitbucket.org/bmosher/testpkg/issues"
                }
            },
            "0.9.2": {
                "name": "bmosher/testpkg",
                "version": "0.9.2",
                "version_normalized": "0.9.2.0",
                "source": {
                    "type": "git",
                    "url": "https://bitbucket.org/bmosher/testpkg.git",
                    "reference": "19f3cacd330ae4164fd0350e4574cb41c3b6a169"
                },
                "dist": {
                    "type": "zip",
                    "url": "https://bitbucket.org/bmosher/testpkg/get/19f3cacd330ae4164fd0350e4574cb41c3b6a169.zip",
                    "reference": "19f3cacd330ae4164fd0350e4574cb41c3b6a169",
                    "shasum": ""
                },
                "time": "2019-01-18T22:49:15+00:00",
                "type": "library",
                "autoload": {
                    "psr-4": {
                        "bmosher\\testpkg\\": "src"
                    }
                },
                "license": [
                    "Beer"
                ],
                "authors": [
                    {
                        "name": "Brendon Mosher",
                        "email": "brendon@iqon.net"
                    }
                ],
                "description": "Test Package",
                "homepage": "https://bitbucket.org/bmosher/testpkg",
                "support": {
                    "source": "https://bitbucket.org/bmosher/testpkg/src/19f3cacd330ae4164fd0350e4574cb41c3b6a169/?at=0.9.2",
                    "issues": "https://bitbucket.org/bmosher/testpkg/issues"
                }
            },
            "dev-master": {
                "name": "bmosher/testpkg",
                "version": "dev-master",
                "version_normalized": "9999999-dev",
                "source": {
                    "type": "git",
                    "url": "https://bitbucket.org/bmosher/testpkg.git",
                    "reference": "19f3cacd330ae4164fd0350e4574cb41c3b6a169"
                },
                "dist": {
                    "type": "zip",
                    "url": "https://bitbucket.org/bmosher/testpkg/get/19f3cacd330ae4164fd0350e4574cb41c3b6a169.zip",
                    "reference": "19f3cacd330ae4164fd0350e4574cb41c3b6a169",
                    "shasum": ""
                },
                "time": "2019-01-18T22:49:15+00:00",
                "type": "library",
                "autoload": {
                    "psr-4": {
                        "bmosher\\testpkg\\": "src"
                    }
                },
                "license": [
                    "Beer"
                ],
                "authors": [
                    {
                        "name": "Brendon Mosher",
                        "email": "brendon@iqon.net"
                    }
                ],
                "description": "Test Package",
                "homepage": "https://bitbucket.org/bmosher/testpkg",
                "support": {
                    "source": "https://bitbucket.org/bmosher/testpkg/src/19f3cacd330ae4164fd0350e4574cb41c3b6a169/?at=0.9.2",
                    "issues": "https://bitbucket.org/bmosher/testpkg/issues"
                }
            }
        }
    }
}
